…
### Answer the following questions using these data:

1.  How many distinct stations are there?

``` r
 nycstation_df = 
   nyc_transit_df |> 
   distinct(line, station_name)

 nycstation_df
```

    ## # A tibble: 465 × 2
    ##    line     station_name            
    ##    <chr>    <chr>                   
    ##  1 4 Avenue 25th St                 
    ##  2 4 Avenue 36th St                 
    ##  3 4 Avenue 45th St                 
    ##  4 4 Avenue 53rd St                 
    ##  5 4 Avenue 59th St                 
    ##  6 4 Avenue 77th St                 
    ##  7 4 Avenue 86th St                 
    ##  8 4 Avenue 95th St                 
    ##  9 4 Avenue 9th St                  
    ## 10 4 Avenue Atlantic Av-Barclays Ctr
    ## # ℹ 455 more rows
…
2.  How many stations are ADA compliant?

``` r
 ada_station_df =
   nyc_transit_df |> 
     select(ada, line, station_name) |>
     filter(ada) |> 
     distinct(line, station_name)

 ada_station_df 
```

    ## # A tibble: 84 × 2
    ##    line            station_name                  
    ##    <chr>           <chr>                         
    ##  1 4 Avenue        Atlantic Av-Barclays Ctr      
    ##  2 4 Avenue        DeKalb Av                     
    ##  3 4 Avenue        Pacific St                    
    ##  4 42nd St Shuttle Grand Central                 
    ##  5 6 Avenue        34th St                       
    ##  6 6 Avenue        47-50th Sts Rockefeller Center
    ##  7 6 Avenue        Church Av                     
    ##  8 63rd Street     21st St                       
    ##  9 63rd Street     Lexington Av                  
    ## 10 63rd Street     Roosevelt Island              
    ## # ℹ 74 more rows
…
